{
	"results": [
		{
			"amp_enabled": true,
			"bounce_class": "1",
			"campaign_id": "Example Campaign Name",
			"click_tracking": true,
			"customer_id": "1",
			"delv_method": "esmtp",
			"device_token": "45c19189783f867973f6e6a5cca60061ffe4fa77c547150563a1192fa9847f8a",
			"error_code": "554",
			"event_id": "92356927693813856",
			"friendly_from": "sender@example.com",
			"initial_pixel": true,
			"injection_time": "2016-04-18T14:25:07.000Z",
			"ip_address": "127.0.0.1",
			"ip_pool": "example-ip-pool",
			"message_id": "000443ee14578172be22",
			"msg_from": "sender@example.com",
			"msg_size": "1337",
			"num_retries": "2",
			"open_tracking": true,
			"rcpt_meta": {
				"customKey": "customValue"
			},
			"rcpt_tags": [
				"male",
				"US"
			],
			"rcpt_to": "recipient@example.com",
			"raw_rcpt_to": "recipient@example.com",
			"rcpt_type": "cc",
			"raw_reason": "MAIL REFUSED - IP (17.99.99.99) is in black list",
			"reason": "MAIL REFUSED - IP (a.b.c.d) is in black list",
			"recipient_domain": "example.com",
			"recv_method": "esmtp",
			"routing_domain": "example.com",
			"sending_domain": "example.com",
			"sending_ip": "127.0.0.1",
			"sms_coding": "ASCII",
			"sms_dst": "7876712656",
			"sms_dst_npi": "E164",
			"sms_dst_ton": "International",
			"sms_src": "1234",
			"sms_src_npi": "E164",
			"sms_src_ton": "Unknown",
			"subaccount_id": "101",
			"subject": "Summer deals are here!",
			"template_id": "templ-1234",
			"template_version": "1",
			"timestamp": "2019-06-16T19:02:09.373Z",
			"transactional": "1",
			"transmission_id": "65832150921904138",
			"type": "bounce"
		},
		{
			"ab_test_id": "password-reset",
			"ab_test_version": "1",
			"campaign_id": "Example Campaign Name",
			"customer_id": "1",
			"delv_method": "esmtp",
			"event_id": "92356927693813856",
			"fbtype": "abuse",
			"friendly_from": "sender@example.com",
			"injection_time": "2016-04-18T14:25:07.000Z",
			"ip_address": "127.0.0.1",
			"ip_pool": "example-ip-pool",
			"message_id": "000443ee14578172be22",
			"msg_from": "sender@example.com",
			"msg_size": "1337",
			"num_retries": "2",
			"queue_time": "12",
			"rcpt_meta": {
				"customKey": "customValue"
			},
			"rcpt_tags": [
				"male",
				"US"
			],
			"rcpt_to": "recipient@example.com",
			"raw_rcpt_to": "recipient@example.com",
			"rcpt_type": "cc",
			"recipient_domain": "example.com",
			"report_by": "server.email.com",
			"report_to": "abuse.example.com",
			"routing_domain": "example.com",
			"sending_domain": "example.com",
			"sending_ip": "127.0.0.1",
			"subaccount_id": "101",
			"subject": "Summer deals are here!",
			"template_id": "templ-1234",
			"template_version": "1",
			"timestamp": "2019-06-16T19:02:09.373Z",
			"transactional": "1",
			"transmission_id": "65832150921904138",
			"type": "spam_complaint"
		},
		{
			"ab_test_id": "password-reset",
			"ab_test_version": "1",
			"bounce_class": "1",
			"campaign_id": "Example Campaign Name",
			"customer_id": "1",
			"delv_method": "esmtp",
			"device_token": "45c19189783f867973f6e6a5cca60061ffe4fa77c547150563a1192fa9847f8a",
			"error_code": "554",
			"event_id": "92356927693813856",
			"friendly_from": "sender@example.com",
			"injection_time": "2016-04-18T14:25:07.000Z",
			"ip_address": "127.0.0.1",
			"ip_pool": "example-ip-pool",
			"message_id": "000443ee14578172be22",
			"msg_from": "sender@example.com",
			"msg_size": "1337",
			"num_retries": "2",
			"queue_time": "12",
			"raw_rcpt_to": "recipient@example.com",
			"raw_reason": "MAIL REFUSED - IP (17.99.99.99) is in black list",
			"rcpt_meta": {
				"customKey": "customValue"
			},
			"rcpt_tags": [
				"male",
				"US"
			],
			"rcpt_to": "recipient@example.com",
			"reason": "MAIL REFUSED - IP (a.b.c.d) is in black list",
			"recipient_domain": "example.com",
			"recv_method": "esmtp",
			"routing_domain": "example.com",
			"sending_domain": "example.com",
			"sending_ip": "127.0.0.1",
			"subaccount_id": "101",
			"subject": "Summer deals are here!",
			"template_id": "templ-1234",
			"template_version": "1",
			"timestamp": "2019-06-16T19:02:09.373Z",
			"transactional": "1",
			"transmission_id": "65832150921904138",
			"type": "out_of_band"
		},
		{
			"ab_test_id": "password-reset",
			"ab_test_version": "1",
			"campaign_id": "Example Campaign Name",
			"customer_id": "1",
			"error_code": "554",
			"event_id": "92356927693813856",
			"friendly_from": "sender@example.com",
			"injection_time": "2016-04-18T14:25:07.000Z",
			"ip_pool": "example-ip-pool",
			"message_id": "000443ee14578172be22",
			"msg_from": "sender@example.com",
			"rcpt_meta": {
				"customKey": "customValue"
			},
			"rcpt_tags": [
				"male",
				"US"
			],
			"rcpt_to": "recipient@example.com",
			"raw_rcpt_to": "recipient@example.com",
			"rcpt_type": "cc",
			"raw_reason": "MAIL REFUSED - IP (17.99.99.99) is in black list",
			"reason": "MAIL REFUSED - IP (a.b.c.d) is in black list",
			"recipient_domain": "example.com",
			"recv_method": "esmtp",
			"remote_addr": "127.0.0.1",
			"sending_domain": "example.com",
			"sending_ip": "127.0.0.1",
			"subaccount_id": "101",
			"template_id": "templ-1234",
			"template_version": "1",
			"timestamp": "2019-06-16T19:02:09.373Z",
			"transactional": "1",
			"transmission_id": "65832150921904138",
			"type": "policy_rejection",
			"bounce_class": "25"
		},
		{
			"ab_test_id": "password-reset",
			"ab_test_version": "1",
			"campaign_id": "Example Campaign Name",
			"customer_id": "1",
			"error_code": "554",
			"event_id": "92356927693813856",
			"friendly_from": "sender@example.com",
			"ip_pool": "example-ip-pool",
			"rcpt_meta": {
				"customKey": "customValue"
			},
			"rcpt_subs": {
				"country": "US",
				"gender": "Female"
			},
			"rcpt_tags": [
				"male",
				"US"
			],
			"rcpt_to": "recipient@example.com",
			"raw_rcpt_to": "recipient@example.com",
			"raw_reason": "MAIL REFUSED - IP (17.99.99.99) is in black list",
			"reason": "MAIL REFUSED - IP (a.b.c.d) is in black list",
			"recipient_domain": "example.com",
			"recv_method": "esmtp",
			"routing_domain": "example.com",
			"sending_domain": "example.com",
			"sending_ip": "127.0.0.1",
			"subaccount_id": "101",
			"subject": "Summer deals are here!",
			"template_id": "templ-1234",
			"template_version": "1",
			"timestamp": "2019-06-16T19:02:09.373Z",
			"transactional": "1",
			"transmission_id": "65832150921904138",
			"type": "generation_rejection",
			"bounce_class": "25"
		}
	],
    "total_count": 7,
    "links": {
        "next": "/api/v1/events/message?cursor=foo&per_page=5"
    }
}